\relax 
\abx@aux@refcontext{none/global//global/global}
\abx@aux@cite{ospadov2018}
\abx@aux@segm{0}{0}{ospadov2018}
\abx@aux@cite{ekholm2018}
\abx@aux@segm{0}{0}{ekholm2018}
\abx@aux@cite{clementi1974}
\abx@aux@segm{0}{0}{clementi1974}
\@writefile{toc}{\boolfalse {citerequest}\boolfalse {citetracker}\boolfalse {pagetracker}\boolfalse {backtracker}\relax }
\@writefile{lof}{\boolfalse {citerequest}\boolfalse {citetracker}\boolfalse {pagetracker}\boolfalse {backtracker}\relax }
\@writefile{lot}{\boolfalse {citerequest}\boolfalse {citetracker}\boolfalse {pagetracker}\boolfalse {backtracker}\relax }
\@writefile{toc}{\defcounter {refsection}{0}\relax }\@writefile{toc}{\contentsline {section}{\numberline {1}Hartree-Fock method}{1}\protected@file@percent }
\newlabel{eq:hamil}{{1}{1}}
\newlabel{eq:hamil_hf}{{2}{1}}
\@writefile{toc}{\defcounter {refsection}{0}\relax }\@writefile{toc}{\contentsline {section}{\numberline {2}Basis sets and spherical averages}{1}\protected@file@percent }
\abx@aux@cite{belki1989}
\abx@aux@segm{0}{0}{belki1989}
\newlabel{eq:mom_distr}{{11}{2}}
\abx@aux@cite{clementi1974}
\abx@aux@segm{0}{0}{clementi1974}
\abx@aux@cite{bunge1993}
\abx@aux@segm{0}{0}{bunge1993}
\@writefile{toc}{\defcounter {refsection}{0}\relax }\@writefile{toc}{\contentsline {section}{\numberline {3}Momentum distributions}{3}\protected@file@percent }
\abx@aux@cite{clementi1974}
\abx@aux@segm{0}{0}{clementi1974}
\abx@aux@cite{bunge1993}
\abx@aux@segm{0}{0}{bunge1993}
\abx@aux@cite{clementi1974}
\abx@aux@segm{0}{0}{clementi1974}
\abx@aux@cite{bunge1993}
\abx@aux@segm{0}{0}{bunge1993}
\abx@aux@cite{bunge1993}
\abx@aux@segm{0}{0}{bunge1993}
\abx@aux@cite{clementi1974}
\abx@aux@segm{0}{0}{clementi1974}
\abx@aux@cite{bunge1993}
\abx@aux@segm{0}{0}{bunge1993}
\abx@aux@cite{ashcroft_mermin}
\abx@aux@segm{0}{0}{ashcroft_mermin}
\@writefile{toc}{\defcounter {refsection}{0}\relax }\@writefile{toc}{\contentsline {section}{\numberline {4}Differences between HF and hydrogenic solutions}{4}\protected@file@percent }
\abx@aux@cite{kaplan2020}
\abx@aux@segm{0}{0}{kaplan2020}
\abx@aux@cite{clementi1974}
\abx@aux@segm{0}{0}{clementi1974}
\abx@aux@cite{clementi1974}
\abx@aux@segm{0}{0}{clementi1974}
\@writefile{toc}{\defcounter {refsection}{0}\relax }\@writefile{toc}{\contentsline {section}{\numberline {5}Plots of the momentum PDFs and CDFs}{6}\protected@file@percent }
\@writefile{toc}{\defcounter {refsection}{0}\relax }\@writefile{toc}{\contentsline {subsection}{\numberline {5.1}CR74 dataset}{6}\protected@file@percent }
\@writefile{lof}{\defcounter {refsection}{0}\relax }\@writefile{lof}{\contentsline {figure}{\numberline {1}{\ignorespaces Momentum PDF using the dataset of Ref. \citenum {clementi1974}.}}{6}\protected@file@percent }
\@writefile{lof}{\defcounter {refsection}{0}\relax }\@writefile{lof}{\contentsline {figure}{\numberline {2}{\ignorespaces Momentum CDF using the dataset of Ref. \citenum {clementi1974}.}}{7}\protected@file@percent }
\abx@aux@cite{bunge1993}
\abx@aux@segm{0}{0}{bunge1993}
\abx@aux@cite{bunge1993}
\abx@aux@segm{0}{0}{bunge1993}
\@writefile{toc}{\defcounter {refsection}{0}\relax }\@writefile{toc}{\contentsline {subsection}{\numberline {5.2}BBB93 dataset}{8}\protected@file@percent }
\@writefile{lof}{\defcounter {refsection}{0}\relax }\@writefile{lof}{\contentsline {figure}{\numberline {3}{\ignorespaces Momentum PDF using the dataset of Ref. \citenum {bunge1993}.}}{8}\protected@file@percent }
\@writefile{lof}{\defcounter {refsection}{0}\relax }\@writefile{lof}{\contentsline {figure}{\numberline {4}{\ignorespaces Momentum CDF using the dataset of Ref. \citenum {bunge1993}.}}{9}\protected@file@percent }
\abx@aux@refcontextdefaultsdone
\abx@aux@defaultrefcontext{0}{ospadov2018}{none/global//global/global}
\abx@aux@defaultrefcontext{0}{ekholm2018}{none/global//global/global}
\abx@aux@defaultrefcontext{0}{clementi1974}{none/global//global/global}
\abx@aux@defaultrefcontext{0}{belki1989}{none/global//global/global}
\abx@aux@defaultrefcontext{0}{bunge1993}{none/global//global/global}
\abx@aux@defaultrefcontext{0}{ashcroft_mermin}{none/global//global/global}
\abx@aux@defaultrefcontext{0}{kaplan2020}{none/global//global/global}
